{
  "hosting": {
    "public": "build",
    "ignore": [
      "firebase.json",
      "**/.*",
      "**/node_modules/**",
      "**/public/**",
      "**/src/**",
      "**/prototyping/**"
    ]
  }
}
